[gd_scene load_steps=5 format=2]

[ext_resource path="res://decor/decor.gd" type="Script" id=1]
[ext_resource path="res://decor/light.ogg" type="AudioStream" id=2]
[ext_resource path="res://decor/sprites/bust.png" type="Texture" id=3]

[sub_resource type="RectangleShape2D" id=1]

custom_solver_bias = 0.0
extents = Vector2( 6, 8 )

[node name="bust" type="RigidBody2D" groups=[
"Decor",
]]

input_pickable = false
collision_layer = 64
collision_mask = 65568
mode = 0
mass = 5.0
friction = 1.0
bounce = 0.0
gravity_scale = 0.0
custom_integrator = false
continuous_cd = 0
contacts_reported = 4
contact_monitor = true
sleeping = true
can_sleep = true
linear_velocity = Vector2( 0, 0 )
linear_damp = -1.0
angular_velocity = 0.0
angular_damp = -1.0
script = ExtResource( 1 )
_sections_unfolded = [ "Collision" ]
score_value = 100
force_to_knock_down = 0

[node name="AudioStreamPlayer2D" type="AudioStreamPlayer2D" parent="." index="0"]

stream = ExtResource( 2 )
volume_db = 0.0
pitch_scale = 1.0
autoplay = false
max_distance = 512.0
attenuation = 2.0
bus = "Master"
area_mask = 1

[node name="CollisionShape2D" type="CollisionShape2D" parent="." index="1"]

shape = SubResource( 1 )
_sections_unfolded = [ "Z Index" ]

[node name="Sprite" type="Sprite" parent="." index="2"]

texture = ExtResource( 3 )
_sections_unfolded = [ "Offset" ]


