[gd_scene load_steps=4 format=2]

[ext_resource path="res://decor/decor.gd" type="Script" id=1]
[ext_resource path="res://decor/light.ogg" type="AudioStream" id=2]
[ext_resource path="res://decor/sprites/turkey.png" type="Texture" id=3]

[node name="turkey" type="RigidBody2D" index="0" groups=[
"Decor",
]]

input_pickable = false
collision_layer = 64
collision_mask = 65568
mode = 0
mass = 5.0
friction = 1.0
bounce = 0.0
gravity_scale = 0.0
custom_integrator = false
continuous_cd = 0
contacts_reported = 4
contact_monitor = true
sleeping = true
can_sleep = true
linear_velocity = Vector2( 0, 0 )
linear_damp = -1.0
angular_velocity = 0.0
angular_damp = -1.0
script = ExtResource( 1 )
_sections_unfolded = [ "Collision" ]
score_value = 100
force_to_knock_down = 0

[node name="AudioStreamPlayer2D" type="AudioStreamPlayer2D" parent="." index="0"]

stream = ExtResource( 2 )
volume_db = 0.0
pitch_scale = 1.0
autoplay = false
max_distance = 512.0
attenuation = 2.0
bus = "Master"
area_mask = 1

[node name="CollisionPolygon2D" type="CollisionPolygon2D" parent="." index="1"]

position = Vector2( 0, 2 )
build_mode = 0
polygon = PoolVector2Array( -16, 2, -8, 10, 0, 10, 8, 6, 16, -6, 12, -10, 8, -6, -8, -6 )

[node name="Sprite" type="Sprite" parent="." index="2"]

texture = ExtResource( 3 )
offset = Vector2( 0, 2 )
_sections_unfolded = [ "Offset" ]


