[gd_scene load_steps=9 format=2]

[ext_resource path="res://player/player.gd" type="Script" id=1]
[ext_resource path="res://player/frames.tres" type="SpriteFrames" id=2]

[sub_resource type="RectangleShape2D" id=1]

custom_solver_bias = 0.0
extents = Vector2( 16, 8 )

[sub_resource type="Animation" id=2]

resource_name = "captured"
length = 1.0
loop = false
step = 0.1
tracks/0/type = "value"
tracks/0/path = NodePath("AnimatedSprite:animation")
tracks/0/interp = 1
tracks/0/loop_wrap = true
tracks/0/imported = false
tracks/0/enabled = true
tracks/0/keys = {
"times": PoolRealArray( 0 ),
"transitions": PoolRealArray( 1 ),
"update": 1,
"values": [ "captured" ]
}
tracks/1/type = "value"
tracks/1/path = NodePath("AnimatedSprite:offset")
tracks/1/interp = 1
tracks/1/loop_wrap = true
tracks/1/imported = false
tracks/1/enabled = true
tracks/1/keys = {
"times": PoolRealArray( 0 ),
"transitions": PoolRealArray( 1 ),
"update": 0,
"values": [ Vector2( 0, -4 ) ]
}
tracks/2/type = "value"
tracks/2/path = NodePath("CollisionPolygon2D:disabled")
tracks/2/interp = 1
tracks/2/loop_wrap = true
tracks/2/imported = false
tracks/2/enabled = true
tracks/2/keys = {
"times": PoolRealArray( 0 ),
"transitions": PoolRealArray( 1 ),
"update": 1,
"values": [ true ]
}
tracks/3/type = "value"
tracks/3/path = NodePath("AnimatedSprite:playing")
tracks/3/interp = 1
tracks/3/loop_wrap = true
tracks/3/imported = false
tracks/3/enabled = true
tracks/3/keys = {
"times": PoolRealArray( 0 ),
"transitions": PoolRealArray( 1 ),
"update": 1,
"values": [ true ]
}

[sub_resource type="Animation" id=3]

length = 0.4
loop = false
step = 0.05
tracks/0/type = "value"
tracks/0/path = NodePath("CollisionPolygon2D:polygon")
tracks/0/interp = 1
tracks/0/loop_wrap = true
tracks/0/imported = false
tracks/0/enabled = true
tracks/0/keys = {
"times": PoolRealArray( 0 ),
"transitions": PoolRealArray( 1 ),
"update": 1,
"values": [ PoolVector2Array( 16, -16, 0, -24, -16, -16, -8, 0, 8, 0 ) ]
}
tracks/1/type = "value"
tracks/1/path = NodePath("AnimatedSprite:animation")
tracks/1/interp = 1
tracks/1/loop_wrap = true
tracks/1/imported = false
tracks/1/enabled = true
tracks/1/keys = {
"times": PoolRealArray( 0 ),
"transitions": PoolRealArray( 1 ),
"update": 1,
"values": [ "crawl" ]
}
tracks/2/type = "value"
tracks/2/path = NodePath("AnimatedSprite:offset")
tracks/2/interp = 1
tracks/2/loop_wrap = true
tracks/2/imported = false
tracks/2/enabled = true
tracks/2/keys = {
"times": PoolRealArray( 0 ),
"transitions": PoolRealArray( 1 ),
"update": 0,
"values": [ Vector2( 0, -16 ) ]
}
tracks/3/type = "value"
tracks/3/path = NodePath("AnimatedSprite:playing")
tracks/3/interp = 1
tracks/3/loop_wrap = true
tracks/3/imported = false
tracks/3/enabled = true
tracks/3/keys = {
"times": PoolRealArray( 0 ),
"transitions": PoolRealArray( 1 ),
"update": 1,
"values": [ true ]
}

[sub_resource type="Animation" id=4]

length = 1.0
loop = true
step = 0.1
tracks/0/type = "value"
tracks/0/path = NodePath("CollisionPolygon2D:polygon")
tracks/0/interp = 1
tracks/0/loop_wrap = true
tracks/0/imported = false
tracks/0/enabled = true
tracks/0/keys = {
"times": PoolRealArray( 0 ),
"transitions": PoolRealArray( 1 ),
"update": 1,
"values": [ PoolVector2Array( 8, -16, 0, -40, -8, -16, -8, 0, 8, 0 ) ]
}
tracks/1/type = "value"
tracks/1/path = NodePath("AnimatedSprite:animation")
tracks/1/interp = 1
tracks/1/loop_wrap = true
tracks/1/imported = false
tracks/1/enabled = true
tracks/1/keys = {
"times": PoolRealArray( 0 ),
"transitions": PoolRealArray( 1 ),
"update": 1,
"values": [ "idle" ]
}
tracks/2/type = "value"
tracks/2/path = NodePath("AnimatedSprite:offset")
tracks/2/interp = 1
tracks/2/loop_wrap = true
tracks/2/imported = false
tracks/2/enabled = true
tracks/2/keys = {
"times": PoolRealArray( 0 ),
"transitions": PoolRealArray( 1 ),
"update": 0,
"values": [ Vector2( 0, -24 ) ]
}
tracks/3/type = "value"
tracks/3/path = NodePath("AnimatedSprite:playing")
tracks/3/interp = 1
tracks/3/loop_wrap = true
tracks/3/imported = false
tracks/3/enabled = true
tracks/3/keys = {
"times": PoolRealArray( 0 ),
"transitions": PoolRealArray( 1 ),
"update": 1,
"values": [ false ]
}
tracks/4/type = "value"
tracks/4/path = NodePath("AnimatedSprite:frame")
tracks/4/interp = 1
tracks/4/loop_wrap = true
tracks/4/imported = false
tracks/4/enabled = true
tracks/4/keys = {
"times": PoolRealArray( 0, 0.5, 0.6, 0.7, 0.8, 0.9, 1 ),
"transitions": PoolRealArray( 1, 1, 1, 1, 1, 1, 1 ),
"update": 1,
"values": [ 0, 1, 2, 3, 2, 1, 0 ]
}

[sub_resource type="Animation" id=5]

length = 0.2
loop = false
step = 0.05
tracks/0/type = "value"
tracks/0/path = NodePath("CollisionPolygon2D:polygon")
tracks/0/interp = 1
tracks/0/loop_wrap = true
tracks/0/imported = false
tracks/0/enabled = true
tracks/0/keys = {
"times": PoolRealArray( 0 ),
"transitions": PoolRealArray( 1 ),
"update": 1,
"values": [ PoolVector2Array( 24, -8, 0, -16, -24, -8, -8, 0, 8, 0 ) ]
}
tracks/1/type = "value"
tracks/1/path = NodePath("AnimatedSprite:animation")
tracks/1/interp = 1
tracks/1/loop_wrap = true
tracks/1/imported = false
tracks/1/enabled = true
tracks/1/keys = {
"times": PoolRealArray( 0 ),
"transitions": PoolRealArray( 1 ),
"update": 1,
"values": [ "jump_forward" ]
}
tracks/2/type = "value"
tracks/2/path = NodePath("AnimatedSprite:offset")
tracks/2/interp = 1
tracks/2/loop_wrap = true
tracks/2/imported = false
tracks/2/enabled = true
tracks/2/keys = {
"times": PoolRealArray( 0 ),
"transitions": PoolRealArray( 1 ),
"update": 0,
"values": [ Vector2( 0, -8 ) ]
}
tracks/3/type = "value"
tracks/3/path = NodePath("AnimatedSprite:playing")
tracks/3/interp = 1
tracks/3/loop_wrap = true
tracks/3/imported = false
tracks/3/enabled = true
tracks/3/keys = {
"times": PoolRealArray( 0 ),
"transitions": PoolRealArray( 1 ),
"update": 1,
"values": [ true ]
}
tracks/4/type = "value"
tracks/4/path = NodePath("grabarea:position")
tracks/4/interp = 1
tracks/4/loop_wrap = true
tracks/4/imported = false
tracks/4/enabled = true
tracks/4/keys = {
"times": PoolRealArray( 0 ),
"transitions": PoolRealArray( 1 ),
"update": 0,
"values": [ Vector2( 0, -8 ) ]
}
tracks/5/type = "value"
tracks/5/path = NodePath("grabarea/rect:shape:extents")
tracks/5/interp = 1
tracks/5/loop_wrap = true
tracks/5/imported = false
tracks/5/enabled = true
tracks/5/keys = {
"times": PoolRealArray( 0 ),
"transitions": PoolRealArray( 1 ),
"update": 0,
"values": [ Vector2( 32, 8 ) ]
}

[sub_resource type="Animation" id=6]

length = 0.2
loop = false
step = 0.05
tracks/0/type = "value"
tracks/0/path = NodePath("CollisionPolygon2D:polygon")
tracks/0/interp = 1
tracks/0/loop_wrap = true
tracks/0/imported = false
tracks/0/enabled = true
tracks/0/keys = {
"times": PoolRealArray( 0 ),
"transitions": PoolRealArray( 1 ),
"update": 1,
"values": [ PoolVector2Array( 8, -40, 0, -48, -8, -40, -8, 0, 8, 0 ) ]
}
tracks/1/type = "value"
tracks/1/path = NodePath("AnimatedSprite:animation")
tracks/1/interp = 1
tracks/1/loop_wrap = true
tracks/1/imported = false
tracks/1/enabled = true
tracks/1/keys = {
"times": PoolRealArray( 0 ),
"transitions": PoolRealArray( 1 ),
"update": 1,
"values": [ "jump_up" ]
}
tracks/2/type = "value"
tracks/2/path = NodePath("AnimatedSprite:offset")
tracks/2/interp = 1
tracks/2/loop_wrap = true
tracks/2/imported = false
tracks/2/enabled = true
tracks/2/keys = {
"times": PoolRealArray( 0 ),
"transitions": PoolRealArray( 1 ),
"update": 0,
"values": [ Vector2( 0, -24 ) ]
}
tracks/3/type = "value"
tracks/3/path = NodePath("AnimatedSprite:playing")
tracks/3/interp = 1
tracks/3/loop_wrap = true
tracks/3/imported = false
tracks/3/enabled = true
tracks/3/keys = {
"times": PoolRealArray( 0 ),
"transitions": PoolRealArray( 1 ),
"update": 1,
"values": [ true ]
}
tracks/4/type = "value"
tracks/4/path = NodePath("grabarea/rect:shape:extents")
tracks/4/interp = 1
tracks/4/loop_wrap = true
tracks/4/imported = false
tracks/4/enabled = true
tracks/4/keys = {
"times": PoolRealArray( 0 ),
"transitions": PoolRealArray( 1 ),
"update": 0,
"values": [ Vector2( 16, 8 ) ]
}
tracks/5/type = "value"
tracks/5/path = NodePath("grabarea:position")
tracks/5/interp = 1
tracks/5/loop_wrap = true
tracks/5/imported = false
tracks/5/enabled = true
tracks/5/keys = {
"times": PoolRealArray( 0 ),
"transitions": PoolRealArray( 1 ),
"update": 0,
"values": [ Vector2( 0, -48 ) ]
}

[node name="player" type="KinematicBody2D" groups=[
"Players",
]]

input_pickable = false
collision_layer = 32
collision_mask = 1
collision/safe_margin = 0.08
script = ExtResource( 1 )
_sections_unfolded = [ "Collision", "Pickable", "Transform", "collision" ]

[node name="grabarea" type="Area2D" parent="." index="0"]

position = Vector2( 0, -48 )
input_pickable = true
gravity_vec = Vector2( 0, 1 )
gravity = 98.0
linear_damp = 0.1
angular_damp = 1.0
collision_layer = 32
audio_bus_override = false
audio_bus_name = "Master"
_sections_unfolded = [ "Collision", "Transform" ]

[node name="rect" type="CollisionShape2D" parent="grabarea" index="0"]

shape = SubResource( 1 )
_sections_unfolded = [ "Transform" ]

[node name="CollisionPolygon2D" type="CollisionPolygon2D" parent="." index="1"]

build_mode = 0
polygon = PoolVector2Array( 8, -16, 0, -40, -8, -16, -8, 0, 8, 0 )

[node name="floorraycast" type="RayCast2D" parent="." index="2"]

position = Vector2( 0, -16 )
enabled = true
exclude_parent = true
cast_to = Vector2( 0, 288 )
collision_mask = 1
_sections_unfolded = [ "Transform" ]

[node name="Polygon2D" type="Polygon2D" parent="." index="3"]

visible = false
polygon = PoolVector2Array( -8, -8, 8, -8, 0, 0 )
uv = PoolVector2Array(  )
color = Color( 1, 1, 1, 1 )
vertex_colors = PoolColorArray(  )
offset = Vector2( 0, 0 )
antialiased = false
texture = null
texture_offset = Vector2( 0, 0 )
texture_scale = Vector2( 1, 1 )
texture_rotation_degrees = 0.0
invert_enable = false
invert_border = 100.0

[node name="AnimationPlayer" type="AnimationPlayer" parent="." index="4"]

root_node = NodePath("..")
autoplay = ""
playback_process_mode = 1
playback_default_blend_time = 0.0
playback_speed = 1.0
anims/captured = SubResource( 2 )
anims/crawl = SubResource( 3 )
anims/idle = SubResource( 4 )
anims/jump_forward = SubResource( 5 )
anims/jump_up = SubResource( 6 )
blend_times = [  ]
_sections_unfolded = [ "Playback Options" ]

[node name="AnimatedSprite" type="AnimatedSprite" parent="." index="5"]

frames = ExtResource( 2 )
animation = "idle"
offset = Vector2( 0, -24 )


